spi_design_spec/sim/test.vcd
$date
	Mon Apr 17 19:24:02 2023
$end
$version
	Icarus Verilog
$end
$timescale
	1s
$end
$scope module tb_spi $end
$var wire 1 ! cmd_fire $end
$var wire 1 " m_read_vld $end
$var wire 8 # m_read_data [7:0] $end
$var wire 1 $ cmd_rdy $end
$var reg 1 % clk $end
$var reg 17 & cmd_in [16:0] $end
$var reg 1 ' cmd_vld $end
$var reg 1 ( rst_n $end
$scope module u_spi $end
$var wire 1 % clk $end
$var wire 17 ) cmd_in [16:0] $end
$var wire 1 ' cmd_vld $end
$var wire 1 ( rst_n $end
$var wire 1 * sclk $end
$var wire 1 + s_read_vld $end
$var wire 1 , mosi $end
$var wire 1 - miso $end
$var wire 1 " m_read_vld $end
$var wire 8 . m_read_data [7:0] $end
$var wire 1 / cs_n $end
$var wire 1 $ cmd_rdy $end
$scope module u_spi_master_top $end
$var wire 1 % clk $end
$var wire 1 0 cmd_fire $end
$var wire 17 1 cmd_in [16:0] $end
$var wire 1 ' cmd_vld $end
$var wire 1 / cs_n $end
$var wire 1 ( rst_n $end
$var wire 1 * sclk $end
$var wire 1 2 send_cnt_done $end
$var wire 1 + s_read_vld $end
$var wire 1 3 rec_cnt_done $end
$var wire 1 , mosi $end
$var wire 1 - miso $end
$var wire 1 " m_read_vld $end
$var wire 8 4 m_read_data [7:0] $end
$var wire 1 $ cmd_rdy $end
$var wire 5 5 clk_cnt [4:0] $end
$var reg 5 6 r_clk_cnt [4:0] $end
$var reg 1 7 r_cs_n $end
$var reg 1 8 r_sclk $end
$scope module u_spi_master_rx $end
$var wire 1 % clk $end
$var wire 5 9 clk_cnt [4:0] $end
$var wire 1 / cs_n $end
$var wire 8 : m_read_data [7:0] $end
$var wire 1 " m_read_vld $end
$var wire 1 3 rec_cnt_done $end
$var wire 1 ( rst_n $end
$var wire 1 + s_read_vld $end
$var wire 1 - miso $end
$var reg 8 ; r_read_data [7:0] $end
$var reg 4 < rec_cnt [3:0] $end
$var reg 1 = rec_cnt_done_delay $end
$var reg 1 > s_read_vld_delay $end
$upscope $end
$scope module u_spi_master_tx $end
$var wire 1 % clk $end
$var wire 5 ? clk_cnt [4:0] $end
$var wire 1 @ cmd_fire $end
$var wire 17 A cmd_in [16:0] $end
$var wire 1 ' cmd_vld $end
$var wire 1 / cs_n $end
$var wire 1 ( rst_n $end
$var wire 1 2 send_cnt_done $end
$var wire 1 , mosi $end
$var wire 1 $ cmd_rdy $end
$var reg 1 B busy $end
$var reg 17 C r_cmd_in [16:0] $end
$var reg 5 D send_cnt [4:0] $end
$upscope $end
$upscope $end
$scope module u_spi_slave_top $end
$var wire 1 / cs_n $end
$var wire 1 , mosi $end
$var wire 1 ( rst_n $end
$var wire 1 * sclk $end
$var wire 1 + s_read_vld $end
$var wire 1 E rd_vld $end
$var wire 1 - miso $end
$var wire 8 F data_out [7:0] $end
$scope module u_spi_slave_rx $end
$var wire 1 / cs_n $end
$var wire 1 , mosi $end
$var wire 1 ( rst_n $end
$var wire 1 + s_read_vld $end
$var wire 1 * sclk $end
$var wire 1 G wr_vld $end
$var wire 8 H slave_data [7:0] $end
$var wire 8 I slave_addr [7:0] $end
$var wire 1 E rd_vld $end
$var wire 8 J data_out [7:0] $end
$var wire 1 K data_cnt_end $end
$var reg 5 L data_cnt [4:0] $end
$var reg 1 M data_cnt_end_delay $end
$var reg 8 N r_data_out [7:0] $end
$var reg 17 O r_slave_data [16:0] $end
$var integer 32 P i [31:0] $end
$upscope $end
$scope module u_spi_slave_tx $end
$var wire 1 / cs_n $end
$var wire 1 E rd_vld $end
$var wire 1 ( rst_n $end
$var wire 8 Q rx_data_in [7:0] $end
$var wire 1 * sclk $end
$var wire 1 - miso $end
$var wire 1 R data_cnt_end $end
$var reg 4 S data_cnt [3:0] $end
$upscope $end
$upscope $end
$upscope $end
$upscope $end
$enddefinitions $end
#0
$dumpvars
b0 S
0R
bx Q
b1111111 P
bx O
bx N
0M
b0 L
0K
bx J
bx I
bx H
xG
bx F
xE
b0 D
b0 C
0B
b11111111101010101 A
x@
b0 ?
0>
0=
b0 <
b0 ;
b0 :
b0 9
08
17
b0 6
b0 5
b0 4
03
02
b11111111101010101 1
x0
1/
b0 .
x-
0,
0+
0*
b11111111101010101 )
0(
x'
b11111111101010101 &
0%
1$
b0 #
0"
x!
$end
#5
00
0@
0!
0'
1%
#10
0%
#15
1%
#20
0%
#25
1%
#30
0%
#35
1%
#40
0%
#45
1%
#50
0%
#55
1%
#60
0%
#65
1%
#70
0%
#75
1%
#80
0%
#85
1%
#90
0%
#95
1%
#100
0%
1(
#105
10
1@
1!
1'
1%
#110
0%
#115
0@
00
0!
1,
b11111111101010101 C
0$
1B
0/
07
1%
#120
0%
#125
b1 5
b1 6
b1 9
b1 ?
1%
#130
0%
#135
b10 5
b10 6
b10 9
b10 ?
1%
#140
0%
#145
b11 5
b11 6
b11 9
b11 ?
1%
#150
0%
#155
b100 5
b100 6
b100 9
b100 ?
1%
#160
0%
#165
b101 5
b101 6
b101 9
b101 ?
1%
#170
0%
#175
bx1 H
b1 L
bx1 O
b1 S
1*
18
b110 5
b110 6
b110 9
b110 ?
1%
#180
0%
#185
b111 5
b111 6
b111 9
b111 ?
1%
#190
0%
#195
b1000 5
b1000 6
b1000 9
b1000 ?
1%
#200
0%
#205
b1001 5
b1001 6
b1001 9
b1001 ?
1%
#210
0%
#215
b1010 5
b1010 6
b1010 9
b1010 ?
1%
#220
0%
#225
b0 5
b0 6
b0 9
b0 ?
0*
08
b0x #
b0x .
b0x 4
b0x :
b0x ;
0,
b1 D
1%
#230
0%
#235
b1 5
b1 6
b1 9
b1 ?
1%
#240
0%
#245
b10 5
b10 6
b10 9
b10 ?
1%
#250
0%
#255
b11 5
b11 6
b11 9
b11 ?
1%
#260
0%
#265
b100 5
b100 6
b100 9
b100 ?
1%
#270
0%
#275
b101 5
b101 6
b101 9
b101 ?
1%
#280
0%
#285
bx01 H
b10 L
bx01 O
b10 S
b110 5
b110 6
b110 9
b110 ?
1*
18
1%
#290
0%
#295
b111 5
b111 6
b111 9
b111 ?
1%
#300
0%
#305
b1000 5
b1000 6
b1000 9
b1000 ?
1%
#310
0%
#315
b1001 5
b1001 6
b1001 9
b1001 ?
1%
#320
0%
#325
b1010 5
b1010 6
b1010 9
b1010 ?
1%
#330
0%
#335
1,
b10 D
0*
08
b0 5
b0 6
b0 9
b0 ?
1%
#340
0%
#345
b1 5
b1 6
b1 9
b1 ?
1%
#350
0%
#355
b10 5
b10 6
b10 9
b10 ?
1%
#360
0%
#365
b11 5
b11 6
b11 9
b11 ?
1%
#370
0%
#375
b100 5
b100 6
b100 9
b100 ?
1%
#380
0%
#385
b101 5
b101 6
b101 9
b101 ?
1%
#390
0%
#395
bx101 H
b11 L
bx101 O
b11 S
1*
18
b110 5
b110 6
b110 9
b110 ?
1%
#400
b1111111100000000 &
b1111111100000000 )
b1111111100000000 1
b1111111100000000 A
0%
#405
b111 5
b111 6
b111 9
b111 ?
1%
#410
0%
#415
b1000 5
b1000 6
b1000 9
b1000 ?
1%
#420
0%
#425
b1001 5
b1001 6
b1001 9
b1001 ?
1%
#430
0%
#435
b1010 5
b1010 6
b1010 9
b1010 ?
1%
#440
0%
#445
b0 5
b0 6
b0 9
b0 ?
0*
08
0,
b11 D
1%
#450
0%
#455
b1 5
b1 6
b1 9
b1 ?
1%
#460
0%
#465
b10 5
b10 6
b10 9
b10 ?
1%
#470
0%
#475
b11 5
b11 6
b11 9
b11 ?
1%
#480
0%
#485
b100 5
b100 6
b100 9
b100 ?
1%
#490
0%
#495
b101 5
b101 6
b101 9
b101 ?
1%
#500
0%
#505
bx0101 H
b100 L
bx0101 O
b100 S
b110 5
b110 6
b110 9
b110 ?
1*
18
1%
#510
0%
#515
b111 5
b111 6
b111 9
b111 ?
1%
#520
0%
#525
b1000 5
b1000 6
b1000 9
b1000 ?
1%
#530
0%
#535
b1001 5
b1001 6
b1001 9
b1001 ?
1%
#540
0%
#545
b1010 5
b1010 6
b1010 9
b1010 ?
1%
#550
0%
#555
1,
b100 D
0*
08
b0 5
b0 6
b0 9
b0 ?
1%
#560
0%
#565
b1 5
b1 6
b1 9
b1 ?
1%
#570
0%
#575
b10 5
b10 6
b10 9
b10 ?
1%
#580
0%
#585
b11 5
b11 6
b11 9
b11 ?
1%
#590
0%
#595
b100 5
b100 6
b100 9
b100 ?
1%
#600
0%
#605
b101 5
b101 6
b101 9
b101 ?
1%
#610
0%
#615
bx10101 H
b101 L
bx10101 O
b101 S
1*
18
b110 5
b110 6
b110 9
b110 ?
1%
#620
0%
#625
b111 5
b111 6
b111 9
b111 ?
1%
#630
0%
#635
b1000 5
b1000 6
b1000 9
b1000 ?
1%
#640
0%
#645
b1001 5
b1001 6
b1001 9
b1001 ?
1%
#650
0%
#655
b1010 5
b1010 6
b1010 9
b1010 ?
1%
#660
0%
#665
b0 5
b0 6
b0 9
b0 ?
0*
08
0,
b101 D
1%
#670
0%
#675
b1 5
b1 6
b1 9
b1 ?
1%
#680
0%
#685
b10 5
b10 6
b10 9
b10 ?
1%
#690
0%
#695
b11 5
b11 6
b11 9
b11 ?
1%
#700
0%
#705
b100 5
b100 6
b100 9
b100 ?
1%
#710
0%
#715
b101 5
b101 6
b101 9
b101 ?
1%
#720
0%
#725
bx010101 H
b110 L
bx010101 O
b110 S
b110 5
b110 6
b110 9
b110 ?
1*
18
1%
#730
0%
#735
b111 5
b111 6
b111 9
b111 ?
1%
#740
0%
#745
b1000 5
b1000 6
b1000 9
b1000 ?
1%
#750
0%
#755
b1001 5
b1001 6
b1001 9
b1001 ?
1%
#760
0%
#765
b1010 5
b1010 6
b1010 9
b1010 ?
1%
#770
0%
#775
1,
b110 D
0*
08
b0 5
b0 6
b0 9
b0 ?
1%
#780
0%
#785
b1 5
b1 6
b1 9
b1 ?
1%
#790
0%
#795
b10 5
b10 6
b10 9
b10 ?
1%
#800
0%
#805
b11 5
b11 6
b11 9
b11 ?
1%
#810
0%
#815
b100 5
b100 6
b100 9
b100 ?
1%
#820
0%
#825
b101 5
b101 6
b101 9
b101 ?
1%
#830
0%
#835
bx1010101 H
b111 L
bx1010101 O
1R
b111 S
1*
18
b110 5
b110 6
b110 9
b110 ?
1%
#840
0%
#845
b111 5
b111 6
b111 9
b111 ?
1%
#850
0%
#855
b1000 5
b1000 6
b1000 9
b1000 ?
1%
#860
0%
#865
b1001 5
b1001 6
b1001 9
b1001 ?
1%
#870
0%
#875
b1010 5
b1010 6
b1010 9
b1010 ?
1%
#880
0%
#885
b0 5
b0 6
b0 9
b0 ?
0*
08
0,
b111 D
1%
#890
0%
#895
b1 5
b1 6
b1 9
b1 ?
1%
#900
0%
#905
b10 5
b10 6
b10 9
b10 ?
1%
#910
0%
#915
b11 5
b11 6
b11 9
b11 ?
1%
#920
0%
#925
b100 5
b100 6
b100 9
b100 ?
1%
#930
0%
#935
b101 5
b101 6
b101 9
b101 ?
1%
#940
0%
#945
b1010101 H
b1000 L
bx01010101 O
0R
b0 S
b110 5
b110 6
b110 9
b110 ?
1*
18
1%
#950
0%
#955
b111 5
b111 6
b111 9
b111 ?
1%
#960
0%
#965
b1000 5
b1000 6
b1000 9
b1000 ?
1%
#970
0%
#975
b1001 5
b1001 6
b1001 9
b1001 ?
1%
#980
0%
#985
b1010 5
b1010 6
b1010 9
b1010 ?
1%
#990
0%
#995
1,
b1000 D
0*
08
b0 5
b0 6
b0 9
b0 ?
1%
#1000
0%
#1005
b1 5
b1 6
b1 9
b1 ?
1%
#1010
0%
#1015
b10 5
b10 6
b10 9
b10 ?
1%
#1020
0%
#1025
b11 5
b11 6
b11 9
b11 ?
1%
#1030
0%
#1035
b100 5
b100 6
b100 9
b100 ?
1%
#1040
0%
#1045
b101 5
b101 6
b101 9
b101 ?
1%
#1050
0%
#1055
bx1 I
b1001 L
bx101010101 O
b1 S
1*
18
b110 5
b110 6
b110 9
b110 ?
1%
#1060
0%
#1065
b111 5
b111 6
b111 9
b111 ?
1%
#1070
0%
#1075
b1000 5
b1000 6
b1000 9
b1000 ?
1%
#1080
0%
#1085
b1001 5
b1001 6
b1001 9
b1001 ?
1%
#1090
0%
#1095
b1010 5
b1010 6
b1010 9
b1010 ?
1%
#1100
0%
#1105
b0 5
b0 6
b0 9
b0 ?
0*
08
b1001 D
1%
#1110
0%
#1115
b1 5
b1 6
b1 9
b1 ?
1%
#1120
0%
#1125
b10 5
b10 6
b10 9
b10 ?
1%
#1130
0%
#1135
b11 5
b11 6
b11 9
b11 ?
1%
#1140
0%
#1145
b100 5
b100 6
b100 9
b100 ?
1%
#1150
0%
#1155
b101 5
b101 6
b101 9
b101 ?
1%
#1160
0%
#1165
bx11 I
b1010 L
bx1101010101 O
b10 S
b110 5
b110 6
b110 9
b110 ?
1*
18
1%
#1170
0%
#1175
b111 5
b111 6
b111 9
b111 ?
1%
#1180
0%
#1185
b1000 5
b1000 6
b1000 9
b1000 ?
1%
#1190
0%
#1195
b1001 5
b1001 6
b1001 9
b1001 ?
1%
#1200
0%
#1205
b1010 5
b1010 6
b1010 9
b1010 ?
1%
#1210
0%
#1215
b1010 D
0*
08
b0 5
b0 6
b0 9
b0 ?
1%
#1220
0%
#1225
b1 5
b1 6
b1 9
b1 ?
1%
#1230
0%
#1235
b10 5
b10 6
b10 9
b10 ?
1%
#1240
0%
#1245
b11 5
b11 6
b11 9
b11 ?
1%
#1250
0%
#1255
b100 5
b100 6
b100 9
b100 ?
1%
#1260
0%
#1265
b101 5
b101 6
b101 9
b101 ?
1%
#1270
0%
#1275
bx111 I
b1011 L
bx11101010101 O
b11 S
1*
18
b110 5
b110 6
b110 9
b110 ?
1%
#1280
0%
#1285
b111 5
b111 6
b111 9
b111 ?
1%
#1290
0%
#1295
b1000 5
b1000 6
b1000 9
b1000 ?
1%
#1300
0%
#1305
b1001 5
b1001 6
b1001 9
b1001 ?
1%
#1310
0%
#1315
b1010 5
b1010 6
b1010 9
b1010 ?
1%
#1320
0%
#1325
b0 5
b0 6
b0 9
b0 ?
0*
08
b1011 D
1%
#1330
0%
#1335
b1 5
b1 6
b1 9
b1 ?
1%
#1340
0%
#1345
b10 5
b10 6
b10 9
b10 ?
1%
#1350
0%
#1355
b11 5
b11 6
b11 9
b11 ?
1%
#1360
0%
#1365
b100 5
b100 6
b100 9
b100 ?
1%
#1370
0%
#1375
b101 5
b101 6
b101 9
b101 ?
1%
#1380
0%
#1385
bx1111 I
b1100 L
bx111101010101 O
b100 S
b110 5
b110 6
b110 9
b110 ?
1*
18
1%
#1390
0%
#1395
b111 5
b111 6
b111 9
b111 ?
1%
#1400
0%
#1405
b1000 5
b1000 6
b1000 9
b1000 ?
1%
#1410
0%
#1415
b1001 5
b1001 6
b1001 9
b1001 ?
1%
#1420
0%
#1425
b1010 5
b1010 6
b1010 9
b1010 ?
1%
#1430
0%
#1435
b1100 D
0*
08
b0 5
b0 6
b0 9
b0 ?
1%
#1440
0%
#1445
b1 5
b1 6
b1 9
b1 ?
1%
#1450
0%
#1455
b10 5
b10 6
b10 9
b10 ?
1%
#1460
0%
#1465
b11 5
b11 6
b11 9
b11 ?
1%
#1470
0%
#1475
b100 5
b100 6
b100 9
b100 ?
1%
#1480
0%
#1485
b101 5
b101 6
b101 9
b101 ?
1%
#1490
0%
#1495
bx11111 I
b1101 L
bx1111101010101 O
b101 S
1*
18
b110 5
b110 6
b110 9
b110 ?
1%
#1500
0%
#1505
b111 5
b111 6
b111 9
b111 ?
1%
#1510
0%
#1515
b1000 5
b1000 6
b1000 9
b1000 ?
1%
#1520
0%
#1525
b1001 5
b1001 6
b1001 9
b1001 ?
1%
#1530
0%
#1535
b1010 5
b1010 6
b1010 9
b1010 ?
1%
#1540
0%
#1545
b0 5
b0 6
b0 9
b0 ?
0*
08
b1101 D
1%
#1550
0%
#1555
b1 5
b1 6
b1 9
b1 ?
1%
#1560
0%
#1565
b10 5
b10 6
b10 9
b10 ?
1%
#1570
0%
#1575
b11 5
b11 6
b11 9
b11 ?
1%
#1580
0%
#1585
b100 5
b100 6
b100 9
b100 ?
1%
#1590
0%
#1595
b101 5
b101 6
b101 9
b101 ?
1%
#1600
0%
#1605
bx111111 I
b1110 L
bx11111101010101 O
b110 S
b110 5
b110 6
b110 9
b110 ?
1*
18
1%
#1610
0%
#1615
b111 5
b111 6
b111 9
b111 ?
1%
#1620
0%
#1625
b1000 5
b1000 6
b1000 9
b1000 ?
1%
#1630
0%
#1635
b1001 5
b1001 6
b1001 9
b1001 ?
1%
#1640
0%
#1645
b1010 5
b1010 6
b1010 9
b1010 ?
1%
#1650
0%
#1655
b1110 D
0*
08
b0 5
b0 6
b0 9
b0 ?
1%
#1660
0%
#1665
b1 5
b1 6
b1 9
b1 ?
1%
#1670
0%
#1675
b10 5
b10 6
b10 9
b10 ?
1%
#1680
0%
#1685
b11 5
b11 6
b11 9
b11 ?
1%
#1690
0%
#1695
b100 5
b100 6
b100 9
b100 ?
1%
#1700
0%
#1705
b101 5
b101 6
b101 9
b101 ?
1%
#1710
0%
#1715
bx1111111 I
b1111 L
bx111111101010101 O
1R
b111 S
1*
18
b110 5
b110 6
b110 9
b110 ?
1%
#1720
0%
#1725
b111 5
b111 6
b111 9
b111 ?
1%
#1730
0%
#1735
b1000 5
b1000 6
b1000 9
b1000 ?
1%
#1740
0%
#1745
b1001 5
b1001 6
b1001 9
b1001 ?
1%
#1750
0%
#1755
b1010 5
b1010 6
b1010 9
b1010 ?
1%
#1760
0%
#1765
b0 5
b0 6
b0 9
b0 ?
0*
08
b1111 D
1%
#1770
0%
#1775
b1 5
b1 6
b1 9
b1 ?
1%
#1780
0%
#1785
b10 5
b10 6
b10 9
b10 ?
1%
#1790
0%
#1795
b11 5
b11 6
b11 9
b11 ?
1%
#1800
0%
#1805
b100 5
b100 6
b100 9
b100 ?
1%
#1810
0%
#1815
b101 5
b101 6
b101 9
b101 ?
1%
#1820
0%
#1825
b11111111 I
1K
b10000 L
bx1111111101010101 O
0R
b0 S
b110 5
b110 6
b110 9
b110 ?
1*
18
1%
#1830
0%
#1835
b111 5
b111 6
b111 9
b111 ?
1%
#1840
0%
#1845
b1000 5
b1000 6
b1000 9
b1000 ?
1%
#1850
0%
#1855
b1001 5
b1001 6
b1001 9
b1001 ?
1%
#1860
0%
#1865
b1010 5
b1010 6
b1010 9
b1010 ?
1%
#1870
0%
#1875
b10000 D
0*
08
b0 5
b0 6
b0 9
b0 ?
1%
#1880
0%
#1885
b1 5
b1 6
b1 9
b1 ?
1%
#1890
0%
#1895
b10 5
b10 6
b10 9
b10 ?
1%
#1900
0%
#1905
b11 5
b11 6
b11 9
b11 ?
1%
#1910
0%
#1915
b100 5
b100 6
b100 9
b100 ?
1%
#1920
0%
#1925
b101 5
b101 6
b101 9
b101 ?
1%
#1930
0%
#1935
1G
0E
1M
0K
b0 L
b11111111101010101 O
b1 S
1*
18
b110 5
b110 6
b110 9
b110 ?
1%
#1940
0%
#1945
b111 5
b111 6
b111 9
b111 ?
1%
#1950
0%
#1955
b1000 5
b1000 6
b1000 9
b1000 ?
1%
#1960
0%
#1965
b1001 5
b1001 6
b1001 9
b1001 ?
1%
#1970
0%
#1975
12
b1010 5
b1010 6
b1010 9
b1010 ?
1%
#1980
0%
#1985
1@
10
1!
02
b0 5
b0 6
b0 9
b0 ?
0*
08
1/
17
1$
0B
1,
b0 D
1%
#1990
0%
#1995
0@
00
0!
0,
b1111111100000000 C
0$
1B
0/
07
1%
#2000
0%
#2005
b1 5
b1 6
b1 9
b1 ?
1%
#2010
0%
#2015
b10 5
b10 6
b10 9
b10 ?
1%
#2020
0%
#2025
b11 5
b11 6
b11 9
b11 ?
1%
#2030
0%
#2035
b100 5
b100 6
b100 9
b100 ?
1%
#2040
0%
#2045
b101 5
b101 6
b101 9
b101 ?
1%
#2050
0%
#2055
b1010100 H
b1 L
0M
b11111111101010100 O
b0 S
1*
18
b110 5
b110 6
b110 9
b110 ?
1%
#2060
0%
#2065
b111 5
b111 6
b111 9
b111 ?
1%
#2070
0%
#2075
b1000 5
b1000 6
b1000 9
b1000 ?
1%
#2080
0%
#2085
b1001 5
b1001 6
b1001 9
b1001 ?
1%
#2090
0%
#2095
b1010 5
b1010 6
b1010 9
b1010 ?
1%
#2100
0%
#2105
b0 5
b0 6
b0 9
b0 ?
0*
08
b1 D
1%
#2110
0%
#2115
b1 5
b1 6
b1 9
b1 ?
1%
#2120
0%
#2125
b10 5
b10 6
b10 9
b10 ?
1%
#2130
0%
#2135
b11 5
b11 6
b11 9
b11 ?
1%
#2140
0%
#2145
b100 5
b100 6
b100 9
b100 ?
1%
#2150
0%
#2155
b101 5
b101 6
b101 9
b101 ?
1%
#2160
0%
#2165
b10 L
b0 S
b110 5
b110 6
b110 9
b110 ?
1*
18
1%
#2170
0%
#2175
b111 5
b111 6
b111 9
b111 ?
1%
#2180
0%
#2185
b1000 5
b1000 6
b1000 9
b1000 ?
1%
#2190
0%
#2195
b1001 5
b1001 6
b1001 9
b1001 ?
1%
#2200
0%
#2205
b1010 5
b1010 6
b1010 9
b1010 ?
1%
#2210
0%
#2215
b10 D
0*
08
b0 5
b0 6
b0 9
b0 ?
1%
#2220
0%
#2225
b1 5
b1 6
b1 9
b1 ?
1%
#2230
0%
#2235
b10 5
b10 6
b10 9
b10 ?
1%
#2240
0%
#2245
b11 5
b11 6
b11 9
b11 ?
1%
#2250
0%
#2255
b100 5
b100 6
b100 9
b100 ?
1%
#2260
0%
#2265
b101 5
b101 6
b101 9
b101 ?
1%
#2270
0%
#2275
b1010000 H
b11 L
b11111111101010000 O
b0 S
1*
18
b110 5
b110 6
b110 9
b110 ?
1%
#2280
0%
#2285
b111 5
b111 6
b111 9
b111 ?
1%
#2290
0%
#2295
b1000 5
b1000 6
b1000 9
b1000 ?
1%
#2300
0%
#2305
b1001 5
b1001 6
b1001 9
b1001 ?
1%
#2310
0%
#2315
b1010 5
b1010 6
b1010 9
b1010 ?
1%
#2320
0%
#2325
b0 5
b0 6
b0 9
b0 ?
0*
08
b11 D
1%
#2330
0%
#2335
b1 5
b1 6
b1 9
b1 ?
1%
#2340
0%
#2345
b10 5
b10 6
b10 9
b10 ?
1%
#2350
0%
#2355
b11 5
b11 6
b11 9
b11 ?
1%
#2360
0%
#2365
b100 5
b100 6
b100 9
b100 ?
1%
#2370
0%
#2375
b101 5
b101 6
b101 9
b101 ?
1%
#2380
0%
#2385
b100 L
b0 S
b110 5
b110 6
b110 9
b110 ?
1*
18
1%
#2390
0%
#2395
b111 5
b111 6
b111 9
b111 ?
1%
#2400
0%
#2405
b1000 5
b1000 6
b1000 9
b1000 ?
1%
#2410
0%
#2415
b1001 5
b1001 6
b1001 9
b1001 ?
1%
#2420
0%
#2425
b1010 5
b1010 6
b1010 9
b1010 ?
1%
#2430
0%
#2435
b100 D
0*
08
b0 5
b0 6
b0 9
b0 ?
1%
#2440
0%
#2445
b1 5
b1 6
b1 9
b1 ?
1%
#2450
0%
#2455
b10 5
b10 6
b10 9
b10 ?
1%
#2460
0%
#2465
b11 5
b11 6
b11 9
b11 ?
1%
#2470
0%
#2475
b100 5
b100 6
b100 9
b100 ?
1%
#2480
0%
#2485
b101 5
b101 6
b101 9
b101 ?
1%
#2490
0%
#2495
b1000000 H
b101 L
b11111111101000000 O
b0 S
1*
18
b110 5
b110 6
b110 9
b110 ?
1%
#2500
0%
#2505
b111 5
b111 6
b111 9
b111 ?
1%
#2510
0%
#2515
b1000 5
b1000 6
b1000 9
b1000 ?
1%
#2520
0%
#2525
b1001 5
b1001 6
b1001 9
b1001 ?
1%
#2530
0%
#2535
b1010 5
b1010 6
b1010 9
b1010 ?
1%
#2540
0%
#2545
b0 5
b0 6
b0 9
b0 ?
0*
08
b101 D
1%
#2550
0%
#2555
b1 5
b1 6
b1 9
b1 ?
1%
#2560
0%
#2565
b10 5
b10 6
b10 9
b10 ?
1%
#2570
0%
#2575
b11 5
b11 6
b11 9
b11 ?
1%
#2580
0%
#2585
b100 5
b100 6
b100 9
b100 ?
1%
#2590
0%
#2595
b101 5
b101 6
b101 9
b101 ?
1%
#2600
0%
#2605
b110 L
b0 S
b110 5
b110 6
b110 9
b110 ?
1*
18
1%
#2610
0%
#2615
b111 5
b111 6
b111 9
b111 ?
1%
#2620
0%
#2625
b1000 5
b1000 6
b1000 9
b1000 ?
1%
#2630
0%
#2635
b1001 5
b1001 6
b1001 9
b1001 ?
1%
#2640
0%
#2645
b1010 5
b1010 6
b1010 9
b1010 ?
1%
#2650
0%
#2655
b110 D
0*
08
b0 5
b0 6
b0 9
b0 ?
1%
#2660
0%
#2665
b1 5
b1 6
b1 9
b1 ?
1%
#2670
0%
#2675
b10 5
b10 6
b10 9
b10 ?
1%
#2680
0%
#2685
b11 5
b11 6
b11 9
b11 ?
1%
#2690
0%
#2695
b100 5
b100 6
b100 9
b100 ?
1%
#2700
0%
#2705
b101 5
b101 6
b101 9
b101 ?
1%
#2710
0%
#2715
b0 H
b111 L
b11111111100000000 O
b0 S
1*
18
b110 5
b110 6
b110 9
b110 ?
1%
#2720
0%
#2725
b111 5
b111 6
b111 9
b111 ?
1%
#2730
0%
#2735
b1000 5
b1000 6
b1000 9
b1000 ?
1%
#2740
0%
#2745
b1001 5
b1001 6
b1001 9
b1001 ?
1%
#2750
0%
#2755
b1010 5
b1010 6
b1010 9
b1010 ?
1%
#2760
0%
#2765
b0 5
b0 6
b0 9
b0 ?
0*
08
b111 D
1%
#2770
0%
#2775
b1 5
b1 6
b1 9
b1 ?
1%
#2780
0%
#2785
b10 5
b10 6
b10 9
b10 ?
1%
#2790
0%
#2795
b11 5
b11 6
b11 9
b11 ?
1%
#2800
0%
#2805
b100 5
b100 6
b100 9
b100 ?
1%
#2810
0%
#2815
b101 5
b101 6
b101 9
b101 ?
1%
#2820
0%
#2825
b1000 L
b0 S
b110 5
b110 6
b110 9
b110 ?
1*
18
1%
#2830
0%
#2835
b111 5
b111 6
b111 9
b111 ?
1%
#2840
0%
#2845
b1000 5
b1000 6
b1000 9
b1000 ?
1%
#2850
0%
#2855
b1001 5
b1001 6
b1001 9
b1001 ?
1%
#2860
0%
#2865
b1010 5
b1010 6
b1010 9
b1010 ?
1%
#2870
0%
#2875
1,
b1000 D
0*
08
b0 5
b0 6
b0 9
b0 ?
1%
#2880
0%
#2885
b1 5
b1 6
b1 9
b1 ?
1%
#2890
0%
#2895
b10 5
b10 6
b10 9
b10 ?
1%
#2900
0%
#2905
b11 5
b11 6
b11 9
b11 ?
1%
#2910
0%
#2915
b100 5
b100 6
b100 9
b100 ?
1%
#2920
0%
#2925
b101 5
b101 6
b101 9
b101 ?
1%
#2930
0%
#2935
b1001 L
b0 S
1*
18
b110 5
b110 6
b110 9
b110 ?
1%
#2940
0%
#2945
b111 5
b111 6
b111 9
b111 ?
1%
#2950
0%
#2955
b1000 5
b1000 6
b1000 9
b1000 ?
1%
#2960
0%
#2965
b1001 5
b1001 6
b1001 9
b1001 ?
1%
#2970
0%
#2975
b1010 5
b1010 6
b1010 9
b1010 ?
1%
#2980
0%
#2985
b0 5
b0 6
b0 9
b0 ?
0*
08
b1001 D
1%
#2990
0%
#2995
b1 5
b1 6
b1 9
b1 ?
1%
#3000
0%
#3005
b10 5
b10 6
b10 9
b10 ?
1%
#3010
0%
#3015
b11 5
b11 6
b11 9
b11 ?
1%
#3020
0%
#3025
b100 5
b100 6
b100 9
b100 ?
1%
#3030
0%
#3035
b101 5
b101 6
b101 9
b101 ?
1%
#3040
0%
#3045
b1010 L
b0 S
b110 5
b110 6
b110 9
b110 ?
1*
18
1%
#3050
0%
#3055
b111 5
b111 6
b111 9
b111 ?
1%
#3060
0%
#3065
b1000 5
b1000 6
b1000 9
b1000 ?
1%
#3070
0%
#3075
b1001 5
b1001 6
b1001 9
b1001 ?
1%
#3080
0%
#3085
b1010 5
b1010 6
b1010 9
b1010 ?
1%
#3090
0%
#3095
b1010 D
0*
08
b0 5
b0 6
b0 9
b0 ?
1%
#3100
0%
#3105
b1 5
b1 6
b1 9
b1 ?
1%
#3110
0%
#3115
b10 5
b10 6
b10 9
b10 ?
1%
#3120
0%
#3125
b11 5
b11 6
b11 9
b11 ?
1%
#3130
0%
#3135
b100 5
b100 6
b100 9
b100 ?
1%
#3140
0%
#3145
b101 5
b101 6
b101 9
b101 ?
1%
#3150
0%
#3155
b1011 L
b0 S
1*
18
b110 5
b110 6
b110 9
b110 ?
1%
#3160
0%
#3165
b111 5
b111 6
b111 9
b111 ?
1%
#3170
0%
#3175
b1000 5
b1000 6
b1000 9
b1000 ?
1%
#3180
0%
#3185
b1001 5
b1001 6
b1001 9
b1001 ?
1%
#3190
0%
#3195
b1010 5
b1010 6
b1010 9
b1010 ?
1%
#3200
0%
#3205
b0 5
b0 6
b0 9
b0 ?
0*
08
b1011 D
1%
#3210
0%
#3215
b1 5
b1 6
b1 9
b1 ?
1%
#3220
0%
#3225
b10 5
b10 6
b10 9
b10 ?
1%
#3230
0%
#3235
b11 5
b11 6
b11 9
b11 ?
1%
#3240
0%
#3245
b100 5
b100 6
b100 9
b100 ?
1%
#3250
0%
#3255
b101 5
b101 6
b101 9
b101 ?
1%
#3260
0%
#3265
b1100 L
b0 S
b110 5
b110 6
b110 9
b110 ?
1*
18
1%
#3270
0%
#3275
b111 5
b111 6
b111 9
b111 ?
1%
#3280
0%
#3285
b1000 5
b1000 6
b1000 9
b1000 ?
1%
#3290
0%
#3295
b1001 5
b1001 6
b1001 9
b1001 ?
1%
#3300
0%
#3305
b1010 5
b1010 6
b1010 9
b1010 ?
1%
#3310
0%
#3315
b1100 D
0*
08
b0 5
b0 6
b0 9
b0 ?
1%
#3320
0%
